Project 1: COVID-19 Trends
…
# What is the absolute difference between the number of
# `Cases` and number of `Fatalities`? (Using `mutate()`)
nna_covidjoined %>% mutate(difference = abs(Cases - Fatalities)) %>% 
    arrange(desc(difference))

## # A tibble: 1,221 x 6
##    County  Cases Fatalities Age_Group   Vaccinated difference
##    <chr>   <dbl>      <dbl> <chr>            <dbl>      <dbl>
##  1 Harris 369892       5625 16-49 years     501123     364267
##  2 Harris 369892       5625 50-64 years     390344     364267
##  3 Harris 369892       5625 65-79 years     418530     364267
##  4 Harris 369892       5625 80+ years       107285     364267
##  5 Harris 369892       5625 Unknown            347     364267
##  6 Dallas 250531       3776 16-49 years     275185     246755
##  7 Dallas 250531       3776 50-64 years     209198     246755
##  8 Dallas 250531       3776 65-79 years     225423     246755
##  9 Dallas 250531       3776 80+ years        60547     246755
## 10 Dallas 250531       3776 Unknown            198     246755
## # … with 1,211 more rows

# using `group_by()`, `summarize()`, and `select()`
nna_covidjoined %>% group_by(County) %>% summarize_all(n_distinct) %>% 
    select(County, Age_Group)

## # A tibble: 255 x 2
##    County    Age_Group
##    <chr>         <int>
##  1 Anderson          5
##  2 Andrews           4
##  3 Angelina          5
##  4 Aransas           5
##  5 Archer            4
##  6 Armstrong         5
##  7 Atascosa          5
##  8 Austin            5
##  9 Bailey            5
## 10 Bandera           5
## # … with 245 more rows
…
